<!-- Generator: Adobe Illustrator 18.1.0, SVG Export Plug-In  -->
<svg version="1.1"
	 xmlns="http://www.w3.org/2000/svg" xmlns:xlink="http://www.w3.org/1999/xlink" xmlns:a="http://ns.adobe.com/AdobeSVGViewerExtensions/3.0/"
	 x="0px" y="0px" width="84px" height="77.3px" viewBox="0 0 84 77.3" enable-background="new 0 0 84 77.3" xml:space="preserve">
<defs>
</defs>
<g>
	<polygon fill="#8CA752" points="54.9,73.5 29.1,73.5 32.3,63.1 51.7,63.1 	"/>
</g>
<g>
	<rect x="25.8" y="75.7" fill="#8CA752" width="32.3" height="1.6"/>
</g>
<path fill="#8CA752" d="M84,48.5v9.7c0,1.8-1.5,3.2-3.2,3.2H3.2c-1.8,0-3.2-1.5-3.2-3.2v-9.7H84z M42,53.3c-0.9,0-1.6,0.7-1.6,1.6
	c0,0.9,0.7,1.6,1.6,1.6c0.9,0,1.6-0.7,1.6-1.6C43.6,54,42.9,53.3,42,53.3z"/>
<path fill="#8CA752" d="M80.8,0C82.6,0,84,1.5,84,3.2v45.2H0V3.2C0,1.5,1.5,0,3.2,0H80.8L80.8,0z M3.2,45.2h77.5v-42H3.2V45.2z"/>
</svg>
