<!-- Generator: Adobe Illustrator 18.1.0, SVG Export Plug-In  -->
<svg version="1.1"
	 xmlns="http://www.w3.org/2000/svg" xmlns:xlink="http://www.w3.org/1999/xlink" xmlns:a="http://ns.adobe.com/AdobeSVGViewerExtensions/3.0/"
	 x="0px" y="0px" width="361px" height="8.4px" viewBox="0 0 361 8.4" enable-background="new 0 0 361 8.4" xml:space="preserve">
<defs>
</defs>
<g>
	<path fill="#77787B" d="M3.2,4.8c0-0.7-0.5-0.9-1.4-1.2C0.9,3.4,0.1,3.1,0.1,2.1c0-0.9,0.8-1.5,1.8-1.5c0.6,0,1.2,0.2,1.7,0.5
		L3.4,1.5C3,1.2,2.4,1,1.9,1C1.1,1,0.7,1.5,0.7,2c0,0.6,0.6,0.9,1.4,1.1c0.8,0.2,1.6,0.6,1.6,1.6c0,0.9-0.8,1.6-1.9,1.6
		C1.1,6.4,0.5,6.2,0,5.9l0.2-0.5c0.5,0.3,1,0.5,1.6,0.5C2.6,5.9,3.2,5.4,3.2,4.8z"/>
	<path fill="#77787B" d="M6.5,6.4c-1.1,0-2-0.8-2-2.2c0-1.3,0.9-2.2,2-2.2s2,0.8,2,2.2C8.5,5.5,7.6,6.4,6.5,6.4z M6.5,2.5
		C5.6,2.5,5,3.2,5,4.2c0,1,0.6,1.7,1.5,1.7c0.9,0,1.4-0.7,1.4-1.7C7.9,3.2,7.3,2.5,6.5,2.5z"/>
	<path fill="#77787B" d="M10,2.1v2.7c0,0.7,0.3,1,0.9,1c0.5,0,0.9-0.2,1.3-0.6V2.1h0.6v4.1l-0.6,0.1c0,0,0-0.6,0-0.7
		c-0.4,0.4-1,0.7-1.4,0.7C10,6.4,9.5,5.9,9.5,5V2.1H10z"/>
	<path fill="#77787B" d="M14.6,6.3H14V2.1L14.6,2v0.9C14.9,2.4,15.3,2,15.8,2c0.3,0,0.5,0.1,0.7,0.2l-0.1,0.5
		c-0.2-0.1-0.4-0.2-0.6-0.2c-0.4,0-0.8,0.3-1.2,1.1V6.3z"/>
	<path fill="#77787B" d="M18.9,6.4c-1.2,0-2-0.9-2-2.2c0-1.3,0.9-2.2,2-2.2c0.5,0,0.9,0.1,1.3,0.4l-0.1,0.5
		c-0.3-0.2-0.7-0.3-1.1-0.3c-0.9,0-1.4,0.7-1.4,1.6c0,1,0.6,1.7,1.5,1.7c0.4,0,0.8-0.1,1.1-0.3L20.2,6C19.8,6.2,19.4,6.4,18.9,6.4z"
		/>
	<path fill="#77787B" d="M21.5,4.3c0,0.9,0.6,1.6,1.4,1.6c0.5,0,0.9-0.1,1.2-0.3L24.2,6c-0.4,0.2-0.8,0.4-1.3,0.4
		c-1.2,0-2-0.9-2-2.1c0-1.3,0.8-2.2,1.9-2.2c0.9,0,1.5,0.6,1.5,1.5c0,0.2,0,0.5-0.1,0.7L21.5,4.3L21.5,4.3z M23.8,3.8
		c0,0,0-0.1,0-0.2c0-0.6-0.3-1.1-1-1.1c-0.7,0-1.2,0.6-1.3,1.3L23.8,3.8z"/>
	<path fill="#77787B" d="M25.6,3.5c-0.3,0-0.5-0.2-0.5-0.5c0-0.2,0.2-0.4,0.5-0.4s0.5,0.2,0.5,0.4C26.1,3.3,25.9,3.5,25.6,3.5z
		 M25.6,6.4c-0.3,0-0.5-0.2-0.5-0.5s0.2-0.5,0.5-0.5s0.5,0.2,0.5,0.5S25.9,6.4,25.6,6.4z"/>
	<path fill="#77787B" d="M34.1,1.3l-1.8,4.9h-0.6l-1.9-4.9l-0.1,4.9h-0.6l0.2-5.6H30l1.9,5l1.9-5h0.8l0.2,5.6h-0.6L34.1,1.3z"/>
	<path fill="#77787B" d="M37.7,6.4c-1.1,0-2-0.8-2-2.2c0-1.3,0.9-2.2,2-2.2s2,0.8,2,2.2C39.7,5.5,38.9,6.4,37.7,6.4z M37.7,2.5
		c-0.9,0-1.4,0.7-1.4,1.7c0,1,0.6,1.7,1.5,1.7c0.9,0,1.4-0.7,1.4-1.7C39.2,3.2,38.6,2.5,37.7,2.5z"/>
	<path fill="#77787B" d="M43.5,6.3V3.6c0-0.7-0.3-1-0.9-1c-0.4,0-0.9,0.2-1.3,0.6v3.1h-0.6V2.1L41.3,2v0.7c0.4-0.4,1-0.7,1.4-0.7
		C43.6,2,44,2.5,44,3.4v2.8H43.5z"/>
	<path fill="#77787B" d="M46.4,6.4c-0.8,0-1.1-0.4-1.1-1.3l0.1-2.4l-0.6,0l0-0.4l0.6-0.1l0-0.9H46l0,1h1.4l0,0.5h-1.4l-0.1,2.5
		c0,0.5,0.2,0.8,0.6,0.8c0.3,0,0.5-0.1,0.8-0.2l0.1,0.5C47.1,6.3,46.7,6.4,46.4,6.4z"/>
	<path fill="#77787B" d="M51,6.3V3.6c0-0.7-0.3-1-0.9-1c-0.5,0-0.9,0.2-1.3,0.6v3.1h-0.6V0.2l0.6-0.1c0,0,0,2.6,0,2.6
		c0.4-0.4,1-0.7,1.4-0.7c0.8,0,1.3,0.5,1.3,1.4v2.8H51z"/>
	<path fill="#77787B" d="M52.8,6.3V0.2l0.6-0.1v6.2H52.8z"/>
	<path fill="#77787B" d="M56.2,6.2l-0.3,0.9c-0.4,1-0.8,1.3-1.3,1.3c-0.3,0-0.5-0.1-0.8-0.2l0.2-0.5c0.2,0.1,0.4,0.2,0.6,0.2
		c0.3,0,0.5-0.2,0.8-1l0.3-0.7l-1.6-4.1h0.6L56,5.5l1.3-3.4h0.6L56.2,6.2z"/>
	<path fill="#77787B" d="M63.3,0.2l0.6-0.1v6.2h-0.6c0,0,0-0.4,0-0.4c-0.3,0.3-0.7,0.5-1.2,0.5c-1.1,0-1.8-0.9-1.8-2.1
		c0-1.3,0.9-2.2,2-2.2c0.4,0,0.7,0.1,1,0.2V0.2z M62.3,2.6c-0.9,0-1.4,0.7-1.4,1.7c0,1,0.5,1.6,1.4,1.6c0.4,0,0.8-0.2,1.1-0.5
		c0,0,0-2.5,0-2.5C63.1,2.7,62.7,2.6,62.3,2.6z"/>
	<path fill="#77787B" d="M67.3,5.8c-0.3,0.3-0.7,0.6-1.2,0.6c-0.8,0-1.3-0.5-1.3-1.1c0-0.7,0.6-1.4,2.5-1.5c0,0,0-0.2,0-0.2
		c0-0.6-0.3-1-1-1c-0.5,0-1,0.2-1.4,0.5l-0.1-0.5c0.4-0.3,1-0.5,1.5-0.5c1,0,1.5,0.4,1.5,1.5c0,0,0,2,0,2c0,0.3,0.1,0.4,0.4,0.4
		l0,0.5C67.7,6.4,67.4,6.2,67.3,5.8L67.3,5.8z M67.3,4.1c-1.4,0.2-1.9,0.5-1.9,1c0,0.4,0.4,0.7,0.8,0.7c0.4,0,0.8-0.3,1.1-0.5V4.1z"
		/>
	<path fill="#77787B" d="M70.3,6.4c-0.8,0-1.1-0.4-1.1-1.3l0.1-2.4l-0.6,0l0-0.4l0.6-0.1l0-0.9h0.5l0,1h1.4l0,0.5h-1.4l-0.1,2.5
		c0,0.5,0.2,0.8,0.6,0.8c0.3,0,0.5-0.1,0.8-0.2l0.1,0.5C70.9,6.3,70.6,6.4,70.3,6.4z"/>
	<path fill="#77787B" d="M74.2,5.8C74,6.1,73.5,6.4,73,6.4c-0.8,0-1.3-0.5-1.3-1.1c0-0.7,0.6-1.4,2.5-1.5c0,0,0-0.2,0-0.2
		c0-0.6-0.3-1-1-1c-0.5,0-1,0.2-1.4,0.5l-0.1-0.5c0.4-0.3,1-0.5,1.5-0.5c1,0,1.5,0.4,1.5,1.5c0,0,0,2,0,2c0,0.3,0.1,0.4,0.4,0.4
		l0,0.5C74.6,6.4,74.3,6.2,74.2,5.8L74.2,5.8z M74.2,4.1c-1.4,0.2-1.9,0.5-1.9,1c0,0.4,0.4,0.7,0.8,0.7c0.4,0,0.8-0.3,1.1-0.5V4.1z"
		/>
	<path fill="#77787B" d="M79.8,6.4c-1.2,0-2-0.9-2-2.2c0-1.3,0.9-2.2,2-2.2c0.5,0,0.9,0.1,1.3,0.4L81,2.9c-0.3-0.2-0.7-0.3-1.1-0.3
		c-0.9,0-1.4,0.7-1.4,1.6c0,1,0.6,1.7,1.5,1.7c0.4,0,0.8-0.1,1.1-0.3L81.1,6C80.8,6.2,80.3,6.4,79.8,6.4z"/>
	<path fill="#77787B" d="M84.3,5.8c-0.3,0.3-0.7,0.6-1.2,0.6c-0.8,0-1.3-0.5-1.3-1.1c0-0.7,0.6-1.4,2.5-1.5c0,0,0-0.2,0-0.2
		c0-0.6-0.3-1-1-1c-0.5,0-1,0.2-1.4,0.5l-0.1-0.5c0.4-0.3,1-0.5,1.5-0.5c1,0,1.5,0.4,1.5,1.5c0,0,0,2,0,2c0,0.3,0.1,0.4,0.4,0.4
		l0,0.5C84.7,6.4,84.4,6.2,84.3,5.8L84.3,5.8z M84.3,4.1c-1.4,0.2-1.9,0.5-1.9,1c0,0.4,0.4,0.7,0.8,0.7c0.4,0,0.8-0.3,1.1-0.5V4.1z"
		/>
	<path fill="#77787B" d="M86.1,6.3V0.2l0.6-0.1v6.2H86.1z"/>
	<path fill="#77787B" d="M89.7,6.4c-1.2,0-2-0.9-2-2.2c0-1.3,0.9-2.2,2-2.2c0.5,0,0.9,0.1,1.3,0.4l-0.1,0.5
		c-0.3-0.2-0.7-0.3-1.1-0.3c-0.9,0-1.4,0.7-1.4,1.6c0,1,0.6,1.7,1.5,1.7c0.4,0,0.8-0.1,1.1-0.3L91,6C90.6,6.2,90.2,6.4,89.7,6.4z"/>
	<path fill="#77787B" d="M92.5,2.1v2.7c0,0.7,0.3,1,0.9,1c0.5,0,0.9-0.2,1.3-0.6V2.1h0.6v4.1l-0.6,0.1c0,0,0-0.6,0-0.7
		c-0.4,0.4-1,0.7-1.4,0.7C92.5,6.4,92,5.9,92,5V2.1H92.5z"/>
	<path fill="#77787B" d="M96.5,6.3V0.2l0.6-0.1v6.2H96.5z"/>
	<path fill="#77787B" d="M100.6,5.8c-0.3,0.3-0.7,0.6-1.2,0.6c-0.8,0-1.3-0.5-1.3-1.1c0-0.7,0.6-1.4,2.5-1.5c0,0,0-0.2,0-0.2
		c0-0.6-0.3-1-1-1c-0.5,0-1,0.2-1.4,0.5l-0.1-0.5c0.4-0.3,1-0.5,1.5-0.5c1,0,1.5,0.4,1.5,1.5c0,0,0,2,0,2c0,0.3,0.1,0.4,0.4,0.4
		l0,0.5C100.9,6.4,100.6,6.2,100.6,5.8L100.6,5.8z M100.5,4.1c-1.4,0.2-1.9,0.5-1.9,1c0,0.4,0.4,0.7,0.8,0.7c0.4,0,0.8-0.3,1.1-0.5
		V4.1z"/>
	<path fill="#77787B" d="M103.5,6.4c-0.8,0-1.1-0.4-1.1-1.3l0.1-2.4l-0.6,0l0-0.4l0.6-0.1l0-0.9h0.5l0,1h1.4l0,0.5H103l-0.1,2.5
		c0,0.5,0.2,0.8,0.6,0.8c0.3,0,0.5-0.1,0.8-0.2l0.1,0.5C104.1,6.3,103.8,6.4,103.5,6.4z"/>
	<path fill="#77787B" d="M105.6,4.3c0,0.9,0.6,1.6,1.4,1.6c0.5,0,0.9-0.1,1.2-0.3l0.1,0.5c-0.4,0.2-0.8,0.4-1.3,0.4
		c-1.2,0-2-0.9-2-2.1c0-1.3,0.8-2.2,1.9-2.2c0.9,0,1.5,0.6,1.5,1.5c0,0.2,0,0.5-0.1,0.7L105.6,4.3L105.6,4.3z M107.9,3.8
		c0,0,0-0.1,0-0.2c0-0.6-0.3-1.1-1-1.1c-0.7,0-1.2,0.6-1.3,1.3L107.9,3.8z"/>
	<path fill="#77787B" d="M112.3,0.2l0.6-0.1v6.2h-0.6c0,0,0-0.4,0-0.4c-0.3,0.3-0.7,0.5-1.2,0.5c-1.1,0-1.8-0.9-1.8-2.1
		c0-1.3,0.9-2.2,2-2.2c0.4,0,0.7,0.1,1,0.2V0.2z M111.2,2.6c-0.9,0-1.4,0.7-1.4,1.7c0,1,0.5,1.6,1.4,1.6c0.4,0,0.8-0.2,1.1-0.5
		c0,0,0-2.5,0-2.5C112,2.7,111.6,2.6,111.2,2.6z"/>
	<path fill="#77787B" d="M118.2,0.7c-0.2-0.1-0.4-0.2-0.6-0.2c-0.5,0-0.7,0.3-0.7,1v0.7h1.3l0,0.5h-1.3v3.6h-0.5V2.7l-0.7,0l0-0.4
		l0.6-0.1l0-0.6c0-1.1,0.5-1.5,1.2-1.5c0.3,0,0.6,0.1,0.8,0.2C118.3,0.2,118.2,0.7,118.2,0.7z"/>
	<path fill="#77787B" d="M119.4,6.3h-0.6V2.1l0.6-0.1v0.9c0.3-0.5,0.7-0.9,1.2-0.9c0.3,0,0.5,0.1,0.7,0.2l-0.1,0.5
		c-0.2-0.1-0.4-0.2-0.6-0.2c-0.4,0-0.8,0.3-1.2,1.1V6.3z"/>
	<path fill="#77787B" d="M123.7,6.4c-1.1,0-2-0.8-2-2.2c0-1.3,0.9-2.2,2-2.2s2,0.8,2,2.2C125.7,5.5,124.8,6.4,123.7,6.4z M123.7,2.5
		c-0.9,0-1.4,0.7-1.4,1.7c0,1,0.6,1.7,1.5,1.7c0.9,0,1.4-0.7,1.4-1.7C125.2,3.2,124.6,2.5,123.7,2.5z"/>
	<path fill="#77787B" d="M131.9,6.3V3.6c0-0.7-0.3-1.1-0.9-1.1c-0.4,0-0.8,0.2-1.2,0.5c0,0.1,0,0.3,0,0.4v2.8h-0.6V3.6
		c0-0.7-0.3-1.1-0.9-1.1c-0.4,0-0.8,0.2-1.1,0.5v3.2h-0.6V2.1l0.6-0.1c0,0,0,0.5,0,0.6c0.4-0.4,0.9-0.6,1.3-0.6
		c0.5,0,0.9,0.2,1.1,0.7c0.5-0.5,1-0.7,1.5-0.7c0.8,0,1.3,0.5,1.3,1.4v2.8H131.9z"/>
	<path fill="#77787B" d="M137.5,6.4c-1.2,0-2-0.9-2-2.2c0-1.3,0.9-2.2,2-2.2c0.5,0,0.9,0.1,1.3,0.4l-0.1,0.5
		c-0.3-0.2-0.7-0.3-1.1-0.3c-0.9,0-1.4,0.7-1.4,1.6c0,1,0.6,1.7,1.5,1.7c0.4,0,0.8-0.1,1.1-0.3l0.1,0.5C138.4,6.2,138,6.4,137.5,6.4
		z"/>
	<path fill="#77787B" d="M141.5,6.4c-1.1,0-2-0.8-2-2.2c0-1.3,0.9-2.2,2-2.2s2,0.8,2,2.2C143.5,5.5,142.6,6.4,141.5,6.4z M141.5,2.5
		c-0.9,0-1.4,0.7-1.4,1.7c0,1,0.6,1.7,1.5,1.7c0.9,0,1.4-0.7,1.4-1.7C143,3.2,142.4,2.5,141.5,2.5z"/>
	<path fill="#77787B" d="M149.7,6.3V3.6c0-0.7-0.3-1.1-0.9-1.1c-0.4,0-0.8,0.2-1.2,0.5c0,0.1,0,0.3,0,0.4v2.8h-0.6V3.6
		c0-0.7-0.3-1.1-0.9-1.1c-0.4,0-0.8,0.2-1.1,0.5v3.2h-0.6V2.1l0.6-0.1c0,0,0,0.5,0,0.6c0.4-0.4,0.9-0.6,1.3-0.6
		c0.5,0,0.9,0.2,1.1,0.7c0.5-0.5,1-0.7,1.5-0.7c0.8,0,1.3,0.5,1.3,1.4v2.8H149.7z"/>
	<path fill="#77787B" d="M154.4,4.8c0-0.7-0.5-0.9-1.4-1.2c-0.8-0.2-1.6-0.6-1.6-1.6c0-0.9,0.8-1.5,1.8-1.5c0.6,0,1.2,0.2,1.7,0.5
		l-0.2,0.5c-0.4-0.3-1-0.5-1.5-0.5c-0.8,0-1.3,0.5-1.3,1c0,0.6,0.6,0.9,1.4,1.1c0.8,0.2,1.6,0.6,1.6,1.6c0,0.9-0.8,1.6-1.9,1.6
		c-0.7,0-1.3-0.2-1.8-0.5l0.2-0.5c0.5,0.3,1,0.5,1.6,0.5C153.8,5.9,154.4,5.4,154.4,4.8z"/>
	<path fill="#77787B" d="M157.7,6.4c-1.2,0-2-0.9-2-2.2c0-1.3,0.9-2.2,2-2.2c0.5,0,0.9,0.1,1.3,0.4l-0.1,0.5
		c-0.3-0.2-0.7-0.3-1.1-0.3c-0.9,0-1.4,0.7-1.4,1.6c0,1,0.6,1.7,1.5,1.7c0.4,0,0.8-0.1,1.1-0.3L159,6C158.6,6.2,158.2,6.4,157.7,6.4
		z"/>
	<path fill="#77787B" d="M161.7,6.4c-1.1,0-2-0.8-2-2.2c0-1.3,0.9-2.2,2-2.2s2,0.8,2,2.2C163.7,5.5,162.8,6.4,161.7,6.4z M161.7,2.5
		c-0.9,0-1.4,0.7-1.4,1.7c0,1,0.6,1.7,1.5,1.7c0.9,0,1.4-0.7,1.4-1.7C163.2,3.2,162.6,2.5,161.7,2.5z"/>
	<path fill="#77787B" d="M165.3,6.3h-0.6V2.1l0.6-0.1v0.9c0.3-0.5,0.7-0.9,1.2-0.9c0.3,0,0.5,0.1,0.7,0.2l-0.1,0.5
		c-0.2-0.1-0.4-0.2-0.6-0.2c-0.4,0-0.8,0.3-1.2,1.1V6.3z"/>
	<path fill="#77787B" d="M168.2,4.3c0,0.9,0.6,1.6,1.4,1.6c0.5,0,0.9-0.1,1.2-0.3l0.1,0.5c-0.4,0.2-0.8,0.4-1.3,0.4
		c-1.2,0-2-0.9-2-2.1c0-1.3,0.8-2.2,1.9-2.2c0.9,0,1.5,0.6,1.5,1.5c0,0.2,0,0.5-0.1,0.7L168.2,4.3L168.2,4.3z M170.5,3.8
		c0,0,0-0.1,0-0.2c0-0.6-0.3-1.1-1-1.1c-0.7,0-1.2,0.6-1.3,1.3L170.5,3.8z"/>
	<path fill="#77787B" d="M174.8,3.3l2.6-2.7h0.7l-2.8,2.8l2.8,2.8h-0.7l-2.6-2.7h0c0,0.5,0,2.7,0,2.7h-0.6V0.6h0.6
		C174.8,0.6,174.8,3.3,174.8,3.3L174.8,3.3z"/>
	<path fill="#77787B" d="M179,4.3c0,0.9,0.6,1.6,1.4,1.6c0.5,0,0.9-0.1,1.2-0.3l0.1,0.5c-0.4,0.2-0.8,0.4-1.3,0.4
		c-1.2,0-2-0.9-2-2.1c0-1.3,0.8-2.2,1.9-2.2c0.9,0,1.5,0.6,1.5,1.5c0,0.2,0,0.5-0.1,0.7L179,4.3L179,4.3z M181.4,3.8
		c0,0,0-0.1,0-0.2c0-0.6-0.3-1.1-1-1.1c-0.7,0-1.2,0.6-1.3,1.3L181.4,3.8z"/>
	<path fill="#77787B" d="M184.6,6.2l-0.3,0.9c-0.4,1-0.8,1.3-1.3,1.3c-0.3,0-0.5-0.1-0.8-0.2l0.2-0.5c0.2,0.1,0.4,0.2,0.6,0.2
		c0.3,0,0.5-0.2,0.8-1l0.3-0.7l-1.6-4.1h0.6l1.3,3.4l1.3-3.4h0.6L184.6,6.2z"/>
	<path fill="#77787B" d="M193.8,1.3L192,6.2h-0.6l-1.9-4.9l-0.1,4.9h-0.6l0.2-5.6h0.8l1.9,5l1.9-5h0.8l0.2,5.6h-0.6L193.8,1.3z"/>
	<path fill="#77787B" d="M196,4.3c0,0.9,0.6,1.6,1.4,1.6c0.5,0,0.9-0.1,1.2-0.3l0.1,0.5c-0.4,0.2-0.8,0.4-1.3,0.4
		c-1.2,0-2-0.9-2-2.1c0-1.3,0.8-2.2,1.9-2.2c0.9,0,1.5,0.6,1.5,1.5c0,0.2,0,0.5-0.1,0.7L196,4.3L196,4.3z M198.4,3.8
		c0,0,0-0.1,0-0.2c0-0.6-0.3-1.1-1-1.1c-0.7,0-1.2,0.6-1.3,1.3L198.4,3.8z"/>
	<path fill="#77787B" d="M202.1,5.8c-0.3,0.3-0.7,0.6-1.2,0.6c-0.8,0-1.3-0.5-1.3-1.1c0-0.7,0.6-1.4,2.5-1.5c0,0,0-0.2,0-0.2
		c0-0.6-0.3-1-1-1c-0.5,0-1,0.2-1.4,0.5l-0.1-0.5c0.4-0.3,1-0.5,1.5-0.5c1,0,1.5,0.4,1.5,1.5c0,0,0,2,0,2c0,0.3,0.1,0.4,0.4,0.4
		l0,0.5C202.5,6.4,202.2,6.2,202.1,5.8L202.1,5.8z M202.1,4.1c-1.4,0.2-1.9,0.5-1.9,1c0,0.4,0.4,0.7,0.8,0.7c0.4,0,0.8-0.3,1.1-0.5
		V4.1z"/>
	<path fill="#77787B" d="M204.9,6.4c-0.5,0-1-0.1-1.4-0.4l0.2-0.5c0.4,0.2,0.8,0.4,1.2,0.4c0.5,0,0.9-0.2,0.9-0.7
		c0-0.5-0.5-0.6-1-0.8c-0.6-0.2-1.2-0.5-1.2-1.2c0-0.7,0.6-1.2,1.4-1.2c0.5,0,0.9,0.1,1.3,0.3l-0.2,0.5c-0.3-0.2-0.8-0.3-1.1-0.3
		c-0.5,0-0.8,0.2-0.8,0.6c0,0.5,0.5,0.6,1,0.8c0.6,0.2,1.2,0.4,1.2,1.2C206.4,5.9,205.7,6.4,204.9,6.4z"/>
	<path fill="#77787B" d="M207.9,2.1v2.7c0,0.7,0.3,1,0.9,1c0.5,0,0.9-0.2,1.3-0.6V2.1h0.6v4.1l-0.6,0.1c0,0,0-0.6,0-0.7
		c-0.4,0.4-1,0.7-1.4,0.7c-0.8,0-1.3-0.5-1.3-1.4V2.1H207.9z"/>
	<path fill="#77787B" d="M212.5,6.3h-0.6V2.1l0.6-0.1v0.9c0.3-0.5,0.7-0.9,1.2-0.9c0.3,0,0.5,0.1,0.7,0.2l-0.1,0.5
		c-0.2-0.1-0.4-0.2-0.6-0.2c-0.4,0-0.8,0.3-1.2,1.1V6.3z"/>
	<path fill="#77787B" d="M215.3,4.3c0,0.9,0.6,1.6,1.4,1.6c0.5,0,0.9-0.1,1.2-0.3l0.1,0.5c-0.4,0.2-0.8,0.4-1.3,0.4
		c-1.2,0-2-0.9-2-2.1c0-1.3,0.8-2.2,1.9-2.2c0.9,0,1.5,0.6,1.5,1.5c0,0.2,0,0.5-0.1,0.7L215.3,4.3L215.3,4.3z M217.7,3.8
		c0,0,0-0.1,0-0.2c0-0.6-0.3-1.1-1-1.1c-0.7,0-1.2,0.6-1.3,1.3L217.7,3.8z"/>
	<path fill="#77787B" d="M220.3,6.4c-0.5,0-1-0.1-1.4-0.4l0.2-0.5c0.4,0.2,0.8,0.4,1.2,0.4c0.5,0,0.9-0.2,0.9-0.7
		c0-0.5-0.5-0.6-1-0.8c-0.6-0.2-1.2-0.5-1.2-1.2c0-0.7,0.6-1.2,1.4-1.2c0.5,0,0.9,0.1,1.3,0.3l-0.2,0.5c-0.3-0.2-0.8-0.3-1.1-0.3
		c-0.5,0-0.8,0.2-0.8,0.6c0,0.5,0.5,0.6,1,0.8c0.6,0.2,1.2,0.4,1.2,1.2C221.8,5.9,221.1,6.4,220.3,6.4z"/>
	<path fill="#77787B" d="M227,5.8c-0.3,0.3-0.7,0.6-1.2,0.6c-0.8,0-1.3-0.5-1.3-1.1c0-0.7,0.6-1.4,2.5-1.5c0,0,0-0.2,0-0.2
		c0-0.6-0.3-1-1-1c-0.5,0-1,0.2-1.4,0.5l-0.1-0.5c0.4-0.3,1-0.5,1.5-0.5c1,0,1.5,0.4,1.5,1.5c0,0,0,2,0,2c0,0.3,0.1,0.4,0.4,0.4
		l0,0.5C227.4,6.4,227.1,6.2,227,5.8L227,5.8z M227,4.1c-1.4,0.2-1.9,0.5-1.9,1c0,0.4,0.4,0.7,0.8,0.7c0.4,0,0.8-0.3,1.1-0.5V4.1z"
		/>
	<path fill="#77787B" d="M231.5,6.3V3.6c0-0.7-0.3-1-0.9-1c-0.4,0-0.9,0.2-1.3,0.6v3.1h-0.6V2.1l0.6-0.1v0.7c0.4-0.4,1-0.7,1.4-0.7
		c0.8,0,1.3,0.5,1.3,1.4v2.8H231.5z"/>
	<path fill="#77787B" d="M236.1,0.2l0.6-0.1v6.2h-0.6c0,0,0-0.4,0-0.4c-0.3,0.3-0.7,0.5-1.2,0.5c-1.1,0-1.8-0.9-1.8-2.1
		c0-1.3,0.9-2.2,2-2.2c0.4,0,0.7,0.1,1,0.2V0.2z M235.1,2.6c-0.9,0-1.4,0.7-1.4,1.7c0,1,0.5,1.6,1.4,1.6c0.4,0,0.8-0.2,1.1-0.5
		c0,0,0-2.5,0-2.5C235.8,2.7,235.5,2.6,235.1,2.6z"/>
	<path fill="#77787B" d="M244.9,1.3l-1.8,4.9h-0.6l-1.9-4.9l-0.1,4.9h-0.6l0.2-5.6h0.8l1.9,5l1.9-5h0.8l0.2,5.6H245L244.9,1.3z"/>
	<path fill="#77787B" d="M248.6,6.4c-1.1,0-2-0.8-2-2.2c0-1.3,0.9-2.2,2-2.2s2,0.8,2,2.2C250.6,5.5,249.7,6.4,248.6,6.4z M248.6,2.5
		c-0.9,0-1.4,0.7-1.4,1.7c0,1,0.6,1.7,1.5,1.7s1.4-0.7,1.4-1.7C250,3.2,249.4,2.5,248.6,2.5z"/>
	<path fill="#77787B" d="M253.2,6.4c-0.3,0-0.7-0.1-1-0.2l-0.6,0.2V0.2l0.6-0.1c0,0,0,2.5,0,2.5c0.3-0.3,0.7-0.5,1.2-0.5
		c1.1,0,1.8,0.9,1.8,2.1C255.2,5.4,254.4,6.4,253.2,6.4z M253.3,2.6c-0.5,0-0.8,0.2-1.1,0.5c0,0,0,2.5,0,2.5c0.3,0.2,0.6,0.3,1,0.3
		c0.9,0,1.4-0.7,1.4-1.7C254.6,3.2,254.1,2.6,253.3,2.6z"/>
	<path fill="#77787B" d="M256.5,1.2c-0.3,0-0.4-0.2-0.4-0.4c0-0.2,0.1-0.4,0.4-0.4s0.4,0.2,0.4,0.4C256.9,1,256.8,1.2,256.5,1.2z
		 M256.2,6.3V2.1l0.6-0.1v4.2H256.2z"/>
	<path fill="#77787B" d="M258.1,6.3V0.2l0.6-0.1v6.2H258.1z"/>
	<path fill="#77787B" d="M260.2,4.3c0,0.9,0.6,1.6,1.4,1.6c0.5,0,0.9-0.1,1.2-0.3L263,6c-0.4,0.2-0.8,0.4-1.3,0.4
		c-1.2,0-2-0.9-2-2.1c0-1.3,0.8-2.2,1.9-2.2c0.9,0,1.5,0.6,1.5,1.5c0,0.2,0,0.5-0.1,0.7L260.2,4.3L260.2,4.3z M262.6,3.8
		c0,0,0-0.1,0-0.2c0-0.6-0.3-1.1-1-1.1c-0.7,0-1.2,0.6-1.3,1.3L262.6,3.8z"/>
	<path fill="#77787B" d="M271.2,1.3l-1.8,4.9h-0.6l-1.9-4.9l-0.1,4.9h-0.6l0.2-5.6h0.8l1.9,5l1.9-5h0.8l0.2,5.6h-0.6L271.2,1.3z"/>
	<path fill="#77787B" d="M273.4,4.3c0,0.9,0.6,1.6,1.4,1.6c0.5,0,0.9-0.1,1.2-0.3l0.1,0.5c-0.4,0.2-0.8,0.4-1.3,0.4
		c-1.2,0-2-0.9-2-2.1c0-1.3,0.8-2.2,1.9-2.2c0.9,0,1.5,0.6,1.5,1.5c0,0.2,0,0.5-0.1,0.7L273.4,4.3L273.4,4.3z M275.7,3.8
		c0,0,0-0.1,0-0.2c0-0.6-0.3-1.1-1-1.1c-0.7,0-1.2,0.6-1.3,1.3L275.7,3.8z"/>
	<path fill="#77787B" d="M278.4,6.4c-0.8,0-1.1-0.4-1.1-1.3l0.1-2.4l-0.6,0l0-0.4l0.6-0.1l0-0.9h0.5l0,1h1.4l0,0.5h-1.4l-0.1,2.5
		c0,0.5,0.2,0.8,0.6,0.8c0.3,0,0.5-0.1,0.8-0.2l0.1,0.5C279.1,6.3,278.7,6.4,278.4,6.4z"/>
	<path fill="#77787B" d="M280.8,6.3h-0.6V2.1l0.6-0.1v0.9c0.3-0.5,0.7-0.9,1.2-0.9c0.3,0,0.5,0.1,0.7,0.2l-0.1,0.5
		c-0.2-0.1-0.4-0.2-0.6-0.2c-0.4,0-0.8,0.3-1.2,1.1V6.3z"/>
	<path fill="#77787B" d="M283.8,1.2c-0.3,0-0.4-0.2-0.4-0.4c0-0.2,0.1-0.4,0.4-0.4s0.4,0.2,0.4,0.4C284.1,1,284,1.2,283.8,1.2z
		 M283.5,6.3V2.1L284,2v4.2H283.5z"/>
	<path fill="#77787B" d="M287.6,6.3l-1.1-1.7l-1.1,1.7h-0.6l1.4-2.1l-1.3-2h0.6l1,1.6l1-1.6h0.6l-1.3,2l1.4,2.1H287.6z"/>
	<path fill="#77787B" d="M293.1,6.4c-1.4,0-2.1-0.8-2.1-2.2V0.6h0.6v3.5c0,1.1,0.5,1.7,1.6,1.7c1,0,1.5-0.6,1.5-1.7c0,0,0-3.5,0-3.5
		h0.6c0,0,0,3.4,0,3.5C295.2,5.5,294.5,6.4,293.1,6.4z"/>
	<path fill="#77787B" d="M299.3,4.8c0-0.7-0.5-0.9-1.4-1.2c-0.8-0.2-1.6-0.6-1.6-1.6c0-0.9,0.8-1.5,1.8-1.5c0.6,0,1.2,0.2,1.7,0.5
		l-0.2,0.5c-0.4-0.3-1-0.5-1.5-0.5c-0.8,0-1.3,0.5-1.3,1c0,0.6,0.6,0.9,1.4,1.1c0.8,0.2,1.6,0.6,1.6,1.6c0,0.9-0.8,1.6-1.9,1.6
		c-0.7,0-1.3-0.2-1.8-0.5l0.2-0.5c0.5,0.3,1,0.5,1.6,0.5C298.8,5.9,299.3,5.4,299.3,4.8z"/>
	<path fill="#77787B" d="M301,5.4c0.3,0,0.6,0.3,0.6,0.7c0,0.6-0.5,1.2-1.1,1.6l-0.2-0.2c0.6-0.4,0.8-0.8,0.8-1.1
		c0-0.2-0.2-0.4-0.6-0.5C300.5,5.6,300.7,5.4,301,5.4z"/>
	<path fill="#77787B" d="M307.4,4.8c0-0.7-0.5-0.9-1.4-1.2c-0.8-0.2-1.6-0.6-1.6-1.6c0-0.9,0.8-1.5,1.8-1.5c0.6,0,1.2,0.2,1.7,0.5
		l-0.2,0.5c-0.4-0.3-1-0.5-1.5-0.5c-0.8,0-1.3,0.5-1.3,1c0,0.6,0.6,0.9,1.4,1.1c0.8,0.2,1.6,0.6,1.6,1.6c0,0.9-0.8,1.6-1.9,1.6
		c-0.7,0-1.3-0.2-1.8-0.5l0.2-0.5c0.5,0.3,1,0.5,1.6,0.5C306.8,5.9,307.4,5.4,307.4,4.8z"/>
	<path fill="#77787B" d="M309.3,4.3c0,0.9,0.6,1.6,1.4,1.6c0.5,0,0.9-0.1,1.2-0.3L312,6c-0.4,0.2-0.8,0.4-1.3,0.4
		c-1.2,0-2-0.9-2-2.1c0-1.3,0.8-2.2,1.9-2.2c0.9,0,1.5,0.6,1.5,1.5c0,0.2,0,0.5-0.1,0.7L309.3,4.3L309.3,4.3z M311.6,3.8
		c0,0,0-0.1,0-0.2c0-0.6-0.3-1.1-1-1.1c-0.7,0-1.2,0.6-1.3,1.3L311.6,3.8z"/>
	<path fill="#77787B" d="M314.9,2.1c1.1,0,1.8,0.9,1.8,2.1c0,1.3-0.8,2.2-2,2.2c-0.3,0-0.7-0.1-1-0.2v2.2h-0.6V2.1l0.6-0.1
		c0,0,0,0.5,0,0.5C314,2.3,314.4,2.1,314.9,2.1z M313.8,5.6c0.3,0.2,0.6,0.3,1,0.3c0.9,0,1.4-0.7,1.4-1.7c0-1-0.5-1.6-1.4-1.6
		c-0.4,0-0.8,0.2-1.1,0.5C313.8,3,313.8,5.6,313.8,5.6z"/>
	<path fill="#77787B" d="M319,6.4c-0.8,0-1.1-0.4-1.1-1.3l0.1-2.4l-0.6,0l0-0.4l0.6-0.1l0-0.9h0.5l0,1h1.4l0,0.5h-1.4l-0.1,2.5
		c0,0.5,0.2,0.8,0.6,0.8c0.3,0,0.5-0.1,0.8-0.2l0.1,0.5C319.6,6.3,319.3,6.4,319,6.4z"/>
	<path fill="#77787B" d="M321,4.3c0,0.9,0.6,1.6,1.4,1.6c0.5,0,0.9-0.1,1.2-0.3l0.1,0.5c-0.4,0.2-0.8,0.4-1.3,0.4
		c-1.2,0-2-0.9-2-2.1c0-1.3,0.8-2.2,1.9-2.2c0.9,0,1.5,0.6,1.5,1.5c0,0.2,0,0.5-0.1,0.7L321,4.3L321,4.3z M323.4,3.8
		c0,0,0-0.1,0-0.2c0-0.6-0.3-1.1-1-1.1c-0.7,0-1.2,0.6-1.3,1.3L323.4,3.8z"/>
	<path fill="#77787B" d="M330.1,6.3V3.6c0-0.7-0.3-1.1-0.9-1.1c-0.4,0-0.8,0.2-1.2,0.5c0,0.1,0,0.3,0,0.4v2.8h-0.6V3.6
		c0-0.7-0.3-1.1-0.9-1.1c-0.4,0-0.8,0.2-1.1,0.5v3.2H325V2.1l0.6-0.1c0,0,0,0.5,0,0.6c0.4-0.4,0.9-0.6,1.3-0.6
		c0.5,0,0.9,0.2,1.1,0.7c0.5-0.5,1-0.7,1.5-0.7c0.8,0,1.3,0.5,1.3,1.4v2.8H330.1z"/>
	<path fill="#77787B" d="M333.5,6.4c-0.3,0-0.7-0.1-1-0.2L332,6.4V0.2l0.6-0.1c0,0,0,2.5,0,2.5c0.3-0.3,0.7-0.5,1.2-0.5
		c1.1,0,1.8,0.9,1.8,2.1C335.6,5.4,334.7,6.4,333.5,6.4z M333.6,2.6c-0.5,0-0.8,0.2-1.1,0.5c0,0,0,2.5,0,2.5c0.3,0.2,0.6,0.3,1,0.3
		c0.9,0,1.4-0.7,1.4-1.7C335,3.2,334.5,2.6,333.6,2.6z"/>
	<path fill="#77787B" d="M336.8,4.3c0,0.9,0.6,1.6,1.4,1.6c0.5,0,0.9-0.1,1.2-0.3l0.1,0.5c-0.4,0.2-0.8,0.4-1.3,0.4
		c-1.2,0-2-0.9-2-2.1c0-1.3,0.8-2.2,1.9-2.2c0.9,0,1.5,0.6,1.5,1.5c0,0.2,0,0.5-0.1,0.7L336.8,4.3L336.8,4.3z M339.2,3.8
		c0,0,0-0.1,0-0.2c0-0.6-0.3-1.1-1-1.1c-0.7,0-1.2,0.6-1.3,1.3L339.2,3.8z"/>
	<path fill="#77787B" d="M341.3,6.3h-0.6V2.1l0.6-0.1v0.9c0.3-0.5,0.7-0.9,1.2-0.9c0.3,0,0.5,0.1,0.7,0.2l-0.1,0.5
		c-0.2-0.1-0.4-0.2-0.6-0.2c-0.4,0-0.8,0.3-1.2,1.1V6.3z"/>
	<path fill="#77787B" d="M345.8,6.3V5.8c1.5-1.1,2.4-1.8,2.4-2.5c0-0.5-0.4-0.8-0.9-0.8c-0.5,0-0.9,0.2-1.3,0.5l-0.2-0.5
		c0.4-0.3,0.9-0.6,1.5-0.6c0.9,0,1.5,0.5,1.5,1.3c0,1-1,1.6-2.2,2.5c0,0,2.4,0,2.4,0v0.5H345.8z"/>
	<path fill="#77787B" d="M351.9,6.4c-1.2,0-2.2-0.9-2.2-2.2s0.9-2.2,2.2-2.2c1.2,0,2.2,0.9,2.2,2.2S353.2,6.4,351.9,6.4z M351.9,2.4
		c-0.9,0-1.6,0.7-1.6,1.7c0,1,0.7,1.7,1.6,1.7c1,0,1.6-0.7,1.6-1.7C353.6,3.2,352.9,2.4,351.9,2.4z"/>
	<path fill="#77787B" d="M355.9,2.6l-1,0.4l0-0.5l1.6-0.6v4.4h-0.5V2.6z"/>
	<path fill="#77787B" d="M361,6.2c0,1.1-0.9,1.7-2,1.7c-0.5,0-1.1-0.1-1.5-0.4l0.1-0.5c0.3,0.2,0.8,0.4,1.3,0.4
		c0.8,0,1.4-0.4,1.4-1.2c0-0.7-0.5-1.1-1.3-1.1c-0.3,0-0.5,0-0.8,0.1V4.8c1.1-0.3,1.9-0.7,1.9-1.4c0-0.6-0.4-0.9-1.1-0.9
		c-0.5,0-0.9,0.2-1.3,0.5l-0.2-0.5c0.4-0.3,1-0.6,1.6-0.6c1,0,1.6,0.6,1.6,1.4c0,0.7-0.6,1.2-1.2,1.5C360.5,4.8,361,5.5,361,6.2z"/>
</g>
</svg>
