<!-- Generator: Adobe Illustrator 18.1.0, SVG Export Plug-In  -->
<svg version="1.1"
	 xmlns="http://www.w3.org/2000/svg" xmlns:xlink="http://www.w3.org/1999/xlink" xmlns:a="http://ns.adobe.com/AdobeSVGViewerExtensions/3.0/"
	 x="0px" y="0px" width="90.6px" height="77.7px" viewBox="0 0 90.6 77.7" enable-background="new 0 0 90.6 77.7"
	 xml:space="preserve">
<defs>
</defs>
<g>
	<path fill="#FFFFFF" d="M14.5,0.9h5.4V2h-4.2v2.8h3.5v1.1h-3.5v3.7h-1.2V0.9z"/>
	<path fill="#FFFFFF" d="M24.6,8.9c-0.5,0.6-1.1,0.9-1.8,0.9c-1.2,0-2-0.8-2-1.8c0-1.1,0.8-2.2,3.8-2.3V5.5c0-1-0.4-1.5-1.4-1.5
		c-0.7,0-1.5,0.3-2.1,0.7l-0.2-1C21.4,3.4,22.3,3,23.2,3c1.7,0,2.5,0.7,2.5,2.5v2.7c0,0.5,0.1,0.6,0.6,0.6l-0.1,1
		C25.2,9.9,24.8,9.5,24.6,8.9L24.6,8.9z M24.6,6.4C22.7,6.7,22,7.1,22,7.9c0,0.6,0.4,1,1.1,1c0.6,0,1.1-0.3,1.5-0.7V6.4z"/>
	<path fill="#FFFFFF" d="M30.3,9.8c-2,0-3.2-1.4-3.2-3.4c0-2,1.4-3.4,3.2-3.4c0.8,0,1.5,0.2,2.1,0.5l-0.3,1.1
		c-0.5-0.4-1.1-0.5-1.8-0.5c-1.3,0-2,0.9-2,2.3c0,1.5,0.8,2.4,2,2.4c0.7,0,1.3-0.2,1.9-0.5l0.2,1.1C31.9,9.7,31.2,9.8,30.3,9.8z"/>
	<path fill="#FFFFFF" d="M34.7,6.6c0,1.3,0.9,2.2,2.1,2.2c0.7,0,1.4-0.2,1.9-0.5l0.2,1.1c-0.6,0.4-1.3,0.5-2.2,0.5
		c-1.9,0-3.3-1.4-3.3-3.4c0-2.1,1.4-3.5,3.2-3.5c1.6,0,2.5,1,2.5,2.5c0,0.4-0.1,0.7-0.1,1C39,6.5,34.7,6.6,34.7,6.6L34.7,6.6z
		 M38,5.7L38,5.7C38,4.6,37.6,4,36.6,4c-1.1,0-1.7,0.9-1.8,1.7L38,5.7z"/>
	<path fill="#FFFFFF" d="M43.2,9.8c-0.4,0-1-0.1-1.4-0.2l-1.1,0.2V0.2L41.8,0c0,0,0,3.7,0,3.8c0.5-0.4,1-0.8,1.8-0.8
		c1.8,0,2.9,1.5,2.9,3.4C46.5,8.3,45.1,9.8,43.2,9.8z M43.4,4.1c-0.6,0-1.1,0.2-1.6,0.6c0-0.1,0,3.7,0,3.7c0.4,0.3,0.9,0.5,1.4,0.5
		c1.3,0,2-1.1,2-2.4C45.3,5,44.6,4.1,43.4,4.1z"/>
	<path fill="#FFFFFF" d="M50.7,9.8c-1.8,0-3.1-1.3-3.1-3.4c0-2.1,1.3-3.4,3.2-3.4c1.8,0,3.1,1.4,3.1,3.4C53.8,8.5,52.5,9.8,50.7,9.8
		z M50.7,4c-1.3,0-2,1-2,2.4c0,1.4,0.7,2.4,2,2.4c1.3,0,2-1,2-2.4C52.7,5.1,52,4,50.7,4z"/>
	<path fill="#FFFFFF" d="M58.1,9.8c-1.8,0-3.1-1.3-3.1-3.4C55,4.4,56.3,3,58.2,3c1.8,0,3.1,1.4,3.1,3.4C61.2,8.5,59.9,9.8,58.1,9.8z
		 M58.1,4c-1.3,0-2,1-2,2.4c0,1.4,0.7,2.4,2,2.4c1.3,0,2-1,2-2.4C60.1,5.1,59.4,4,58.1,4z"/>
	<path fill="#FFFFFF" d="M64,6.5v3.2h-1.1V0.2L64,0v6.2h0l2.7-2.9h1.5l-2.9,3l3,3.4h-1.5L64,6.5L64,6.5z"/>
	<path fill="#FFFFFF" d="M73,1.8c-0.5,0-0.8-0.4-0.8-0.8s0.2-0.8,0.8-0.8c0.5,0,0.8,0.4,0.8,0.8S73.5,1.8,73,1.8z M72.4,9.6V3.2
		L73.6,3v6.6H72.4z"/>
	<path fill="#FFFFFF" d="M77.2,9.9c-0.8,0-1.7-0.2-2.2-0.6l0.3-1.1c0.5,0.4,1.3,0.6,2,0.6c0.7,0,1.3-0.3,1.3-0.9
		c0-0.6-0.8-0.9-1.5-1.1c-0.9-0.3-1.9-0.7-1.9-1.9c0-1.2,1-1.9,2.3-1.9c0.7,0,1.5,0.2,2.1,0.5l-0.3,1.1c-0.5-0.3-1.3-0.5-1.8-0.5
		c-0.7,0-1.1,0.3-1.1,0.8c0,0.6,0.7,0.8,1.5,1c0.9,0.3,1.9,0.7,1.9,1.9C79.7,9,78.6,9.9,77.2,9.9z"/>
	<path fill="#FFFFFF" d="M23.4,22.4l-6.3,2l-0.2-4l10.8-3.6v26.3h-4.4V22.4z"/>
	<path fill="#FFFFFF" d="M32.7,43.1v-3.8c7.6-5.6,14.4-9.8,14.4-14c0-2.5-1.9-4.3-5.1-4.3c-2.7,0-5.1,1.2-7.7,3.1l-1.6-3.8
		c2.5-2,5.7-3.5,9.7-3.5c5.5,0,9.3,3.1,9.3,7.9c0,5.9-5.3,9.1-12.4,14.2H53v4.2H32.7z"/>
	<path fill="#FFFFFF" d="M60.7,32.8c-3.3,0-5.4-2.5-5.4-5.3c0-2.9,2.1-5.4,5.4-5.4c3.3,0,5.4,2.5,5.4,5.4
		C66.1,30.4,64.1,32.8,60.7,32.8z M60.7,23.8c-2.3,0-3.6,1.7-3.6,3.7c0,1.9,1.4,3.7,3.6,3.7s3.6-1.7,3.6-3.7
		C64.4,25.4,63,23.8,60.7,23.8z M59.9,43.6h-2L74,22.4h2L59.9,43.6z M73.1,43.9c-3.3,0-5.4-2.5-5.4-5.4c0-2.9,2-5.3,5.4-5.3
		c3.3,0,5.4,2.5,5.4,5.3C78.4,41.4,76.4,43.9,73.1,43.9z M73.1,34.8c-2.3,0-3.6,1.7-3.6,3.7c0,2.1,1.4,3.7,3.6,3.7
		c2.3,0,3.6-1.7,3.6-3.7C76.7,36.5,75.3,34.8,73.1,34.8z"/>
	<path fill="#FFFFFF" d="M3.1,60.6c-1.8,0-3.1-1.3-3.1-3.4c0-2.1,1.3-3.4,3.2-3.4c1.8,0,3.1,1.4,3.1,3.4C6.3,59.2,4.9,60.6,3.1,60.6
		z M3.1,54.7c-1.3,0-2,1-2,2.4c0,1.4,0.7,2.4,2,2.4c1.3,0,2-1,2-2.4C5.1,55.8,4.4,54.7,3.1,54.7z"/>
	<path fill="#FFFFFF" d="M11.2,52c-0.3-0.1-0.7-0.3-1-0.3c-0.6,0-1,0.4-1,1.4v0.9h2l0,1h-2v5.4H8.1V55l-1.1-0.1L7,54.2l1.1-0.3
		l0-0.8c0-1.8,0.9-2.5,2.1-2.5c0.5,0,1,0.2,1.3,0.3C11.5,50.9,11.2,52,11.2,52z"/>
	<path fill="#FFFFFF" d="M18.7,59.7c-0.5,0.6-1.1,0.9-1.8,0.9c-1.2,0-2-0.8-2-1.8c0-1.1,0.8-2.2,3.8-2.3v-0.2c0-1-0.4-1.5-1.4-1.5
		c-0.7,0-1.5,0.3-2.1,0.7l-0.2-1c0.6-0.4,1.5-0.7,2.4-0.7c1.7,0,2.5,0.7,2.5,2.5v2.7c0,0.5,0.1,0.6,0.6,0.6l-0.1,1
		C19.4,60.6,19,60.2,18.7,59.7L18.7,59.7z M18.8,57.2c-1.9,0.3-2.6,0.6-2.6,1.4c0,0.6,0.4,1,1.1,1c0.6,0,1.1-0.3,1.5-0.7V57.2z"/>
	<path fill="#FFFFFF" d="M21.8,60.4v-9.5l1.1-0.2v9.6H21.8z"/>
	<path fill="#FFFFFF" d="M24.9,60.4v-9.5l1.1-0.2v9.6H24.9z"/>
	<path fill="#FFFFFF" d="M33.2,60.6c-1.2,0-1.9-0.6-1.9-2l0.1-3.6l-1.1-0.1l0-0.7l1.1-0.3l0-1.4h1.1l0,1.5h2l0,1h-2l-0.1,3.6
		c0,0.6,0.3,0.9,0.8,0.9c0.4,0,0.8-0.1,1.2-0.2c0,0,0.2,1,0.2,1C34.2,60.5,33.7,60.6,33.2,60.6z"/>
	<path fill="#FFFFFF" d="M36.6,52.5c-0.5,0-0.8-0.4-0.8-0.8s0.2-0.8,0.8-0.8c0.5,0,0.8,0.4,0.8,0.8S37.1,52.5,36.6,52.5z M36,60.4
		v-6.5l1.1-0.2v6.6H36z"/>
	<path fill="#FFFFFF" d="M47.2,60.4v-4c0-1.1-0.4-1.5-1.2-1.5c-0.7,0-1.3,0.4-1.6,0.7v0.4v4.4h-1.2v-4c0-1.1-0.4-1.5-1.2-1.5
		c-0.7,0-1.3,0.3-1.6,0.7v4.9h-1.1v-6.5l1.1-0.2c0,0,0,0.8,0,0.9c0.6-0.6,1.3-0.9,2.1-0.9c0.7,0,1.4,0.4,1.7,1.1
		c0.7-0.7,1.4-1.1,2.3-1.1c1.2,0,1.9,0.8,1.9,2.2v4.4H47.2z"/>
	<path fill="#FFFFFF" d="M51,57.3c0,1.3,0.9,2.2,2.1,2.2c0.7,0,1.4-0.2,1.9-0.5l0.2,1.1c-0.6,0.4-1.3,0.5-2.2,0.5
		c-1.9,0-3.3-1.4-3.3-3.4c0-2.1,1.4-3.5,3.2-3.5c1.6,0,2.5,1,2.5,2.5c0,0.4-0.1,0.7-0.1,1C55.3,57.3,51,57.3,51,57.3L51,57.3z
		 M54.4,56.4L54.4,56.4c0-1.1-0.4-1.7-1.5-1.7c-1.1,0-1.7,0.9-1.8,1.7L54.4,56.4z"/>
	<path fill="#FFFFFF" d="M61.9,60.6c-0.8,0-1.7-0.2-2.2-0.6l0.3-1.1c0.5,0.4,1.3,0.6,2,0.6c0.7,0,1.3-0.3,1.3-0.9
		c0-0.6-0.8-0.9-1.5-1.1c-0.9-0.3-1.9-0.7-1.9-1.9c0-1.2,1-1.9,2.3-1.9c0.7,0,1.5,0.2,2.1,0.5l-0.3,1.1c-0.5-0.3-1.3-0.5-1.8-0.5
		c-0.7,0-1.1,0.3-1.1,0.8c0,0.6,0.7,0.8,1.5,1c0.9,0.3,1.9,0.7,1.9,1.9C64.3,59.8,63.3,60.6,61.9,60.6z"/>
	<path fill="#FFFFFF" d="M68.8,53.7c1.8,0,2.9,1.5,2.9,3.4c0,1.9-1.3,3.4-3.3,3.4c-0.4,0-1-0.1-1.4-0.2v3.2h-1.1v-9.7l1.1-0.2
		c0,0,0,0.7,0,0.8C67.5,54.1,68,53.7,68.8,53.7z M67,59.1c0.4,0.3,0.9,0.5,1.4,0.5c1.3,0,2-1.1,2-2.4c0-1.4-0.7-2.4-1.9-2.4
		c-0.6,0-1.1,0.2-1.6,0.6C67,55.3,67,59.1,67,59.1z"/>
	<path fill="#FFFFFF" d="M74,57.3c0,1.3,0.9,2.2,2.1,2.2c0.7,0,1.4-0.2,1.9-0.5l0.2,1.1c-0.6,0.4-1.3,0.5-2.2,0.5
		c-1.9,0-3.3-1.4-3.3-3.4c0-2.1,1.4-3.5,3.2-3.5c1.6,0,2.5,1,2.5,2.5c0,0.4-0.1,0.7-0.1,1C78.3,57.3,74,57.3,74,57.3L74,57.3z
		 M77.3,56.4L77.3,56.4c0-1.1-0.4-1.7-1.5-1.7c-1.1,0-1.7,0.9-1.8,1.7L77.3,56.4z"/>
	<path fill="#FFFFFF" d="M84.1,60.4v-4c0-1.1-0.4-1.5-1.3-1.5c-0.7,0-1.3,0.4-1.7,0.7v4.8H80v-6.5l1.1-0.2v1c0.6-0.6,1.3-1,2.1-1
		c1.3,0,2.1,0.8,2.1,2.2v4.4H84.1z"/>
	<path fill="#FFFFFF" d="M89.1,60.6c-1.2,0-1.9-0.6-1.9-2l0.1-3.6l-1.1-0.1l0-0.7l1.1-0.3l0-1.4h1.1l0,1.5h2l0,1h-2l-0.1,3.6
		c0,0.6,0.3,0.9,0.8,0.9c0.4,0,0.8-0.1,1.2-0.2c0,0,0.2,1,0.2,1C90.1,60.5,89.6,60.6,89.1,60.6z"/>
	<path fill="#FFFFFF" d="M7.8,74.6c-1.8,0-3.1-1.3-3.1-3.4c0-2.1,1.3-3.4,3.2-3.4c1.8,0,3.1,1.4,3.1,3.4
		C10.9,73.2,9.6,74.6,7.8,74.6z M7.8,68.8c-1.3,0-2,1-2,2.4c0,1.4,0.7,2.4,2,2.4c1.3,0,2-1,2-2.4C9.8,69.8,9,68.8,7.8,68.8z"/>
	<path fill="#FFFFFF" d="M16.7,74.4v-4c0-1.1-0.4-1.5-1.3-1.5c-0.7,0-1.3,0.4-1.7,0.7v4.8h-1.1v-6.5l1.1-0.2v1c0.6-0.6,1.3-1,2.1-1
		c1.3,0,2.1,0.8,2.1,2.2v4.4H16.7z"/>
	<path fill="#FFFFFF" d="M24.9,74.6c-1.2,0-1.9-0.6-1.9-2l0.1-3.6L22,68.9l0-0.7l1.1-0.3l0-1.4h1.1l0,1.5h2l0,1h-2l-0.1,3.6
		c0,0.6,0.3,0.9,0.8,0.9c0.4,0,0.8-0.1,1.2-0.2c0,0,0.2,1,0.2,1C25.8,74.5,25.4,74.6,24.9,74.6z"/>
	<path fill="#FFFFFF" d="M31.9,74.4v-4c0-1.1-0.4-1.5-1.3-1.5c-0.7,0-1.4,0.4-1.8,0.7v4.8h-1.1v-9.5l1.1-0.2c0,0,0,3.9,0,3.9
		c0.6-0.6,1.3-0.9,2.2-0.9c1.2,0,2,0.8,2,2.2v4.4H31.9z"/>
	<path fill="#FFFFFF" d="M35.7,71.4c0,1.3,0.9,2.2,2.1,2.2c0.7,0,1.4-0.2,1.9-0.5l0.2,1.1c-0.6,0.4-1.3,0.5-2.2,0.5
		c-1.9,0-3.3-1.4-3.3-3.4c0-2.1,1.4-3.5,3.2-3.5c1.6,0,2.5,1,2.5,2.5c0,0.4-0.1,0.7-0.1,1C40,71.3,35.7,71.3,35.7,71.4L35.7,71.4z
		 M39,70.4L39,70.4c0-1.1-0.4-1.7-1.5-1.7c-1.1,0-1.7,0.9-1.8,1.7L39,70.4z"/>
	<path fill="#FFFFFF" d="M49.1,64.9l1.2-0.2v9.6h-1.2c0,0,0-0.5,0-0.6c-0.5,0.4-1,0.8-1.8,0.8c-1.8,0-2.9-1.5-2.9-3.4
		c0-1.9,1.3-3.4,3.3-3.4c0.5,0,1,0.1,1.4,0.2V64.9z M47.7,68.8c-1.3,0-2,1.1-2,2.4c0,1.4,0.7,2.4,1.9,2.4c0.6,0,1.1-0.2,1.6-0.6
		c0,0.1,0-3.7,0-3.7C48.7,68.9,48.3,68.8,47.7,68.8z"/>
	<path fill="#FFFFFF" d="M53,71.4c0,1.3,0.9,2.2,2.1,2.2c0.7,0,1.4-0.2,1.9-0.5l0.2,1.1c-0.6,0.4-1.3,0.5-2.2,0.5
		c-1.9,0-3.3-1.4-3.3-3.4c0-2.1,1.4-3.5,3.2-3.5c1.6,0,2.5,1,2.5,2.5c0,0.4-0.1,0.7-0.1,1C57.3,71.3,53,71.3,53,71.4L53,71.4z
		 M56.4,70.4L56.4,70.4c0-1.1-0.4-1.7-1.5-1.7c-1.1,0-1.7,0.9-1.8,1.7L56.4,70.4z"/>
	<path fill="#FFFFFF" d="M60.7,74.6c-0.8,0-1.7-0.2-2.2-0.6l0.3-1.1c0.5,0.4,1.3,0.6,2,0.6c0.7,0,1.3-0.3,1.3-0.9
		c0-0.6-0.8-0.9-1.5-1.1c-0.9-0.3-1.9-0.7-1.9-1.9c0-1.2,1-1.9,2.3-1.9c0.7,0,1.5,0.2,2.1,0.5l-0.3,1.1c-0.5-0.3-1.3-0.5-1.8-0.5
		c-0.7,0-1.1,0.3-1.1,0.8c0,0.6,0.7,0.8,1.5,1c0.9,0.3,1.9,0.7,1.9,1.9C63.1,73.8,62.1,74.6,60.7,74.6z"/>
	<path fill="#FFFFFF" d="M65.8,71.2v3.2h-1.1v-9.5l1.1-0.2v6.2h0l2.7-2.9h1.5L67,71l3,3.4h-1.5L65.8,71.2L65.8,71.2z"/>
	<path fill="#FFFFFF" d="M73,74.6c-1.2,0-1.9-0.6-1.9-2l0.1-3.6l-1.1-0.1l0-0.7l1.1-0.3l0-1.4h1.1l0,1.5h2l0,1h-2l-0.1,3.6
		c0,0.6,0.3,0.9,0.8,0.9c0.4,0,0.8-0.1,1.2-0.2c0,0,0.2,1,0.2,1C73.9,74.5,73.4,74.6,73,74.6z"/>
	<path fill="#FFFFFF" d="M78.4,74.6c-1.8,0-3.1-1.3-3.1-3.4c0-2.1,1.3-3.4,3.2-3.4c1.8,0,3.1,1.4,3.1,3.4
		C81.5,73.2,80.2,74.6,78.4,74.6z M78.4,68.8c-1.3,0-2,1-2,2.4c0,1.4,0.7,2.4,2,2.4c1.3,0,2-1,2-2.4C80.4,69.8,79.7,68.8,78.4,68.8z
		"/>
	<path fill="#FFFFFF" d="M86.1,67.8c1.8,0,2.9,1.5,2.9,3.4c0,1.9-1.3,3.4-3.3,3.4c-0.4,0-1-0.1-1.4-0.2v3.2h-1.1v-9.7l1.1-0.2
		c0,0,0,0.7,0,0.8C84.7,68.1,85.3,67.8,86.1,67.8z M84.3,73.1c0.4,0.3,0.9,0.5,1.4,0.5c1.3,0,2-1.1,2-2.4c0-1.4-0.7-2.4-1.9-2.4
		c-0.6,0-1.1,0.2-1.6,0.6C84.3,69.4,84.3,73.1,84.3,73.1z"/>
</g>
</svg>
