<!-- Generator: Adobe Illustrator 18.1.0, SVG Export Plug-In  -->
<svg version="1.1"
	 xmlns="http://www.w3.org/2000/svg" xmlns:xlink="http://www.w3.org/1999/xlink" xmlns:a="http://ns.adobe.com/AdobeSVGViewerExtensions/3.0/"
	 x="0px" y="0px" width="122.2px" height="120.3px" viewBox="0 0 122.2 120.3" enable-background="new 0 0 122.2 120.3"
	 xml:space="preserve">
<defs>
</defs>
<g>
	<g>
		<g>
			<path fill="#FFFFFF" d="M10.6,11.4c-3.2,0-5.7-2.6-5.7-5.7C4.9,2.6,7.4,0,10.6,0c3.2,0,5.7,2.6,5.7,5.7
				C16.3,8.9,13.8,11.4,10.6,11.4z"/>
		</g>
		<g>
			<path fill="#FFFFFF" d="M1.6,12.4h18.3c1.4,0,1.2,1.1,1.2,2.6v7v1.2v7.6c0,1-0.8,1.9-1.9,1.9c-1,0-1.9-0.8-1.9-1.9v-7.6V22v-4.4
				h-0.9v15h0v8.9c0,0.1,0,0.3,0,0.4c0,0.1,0,0.3,0,0.4v10c0,1.7-1.2,3-2.7,3c-1.5,0-2.7-1.4-2.7-3v-10c0-0.1,0-0.2,0-0.4
				c0-0.1,0-0.2,0-0.4v-8.9h-0.8v8.9c0,0.1,0,0.3,0,0.4c0,0.1,0,0.3,0,0.4v10c0,1.7-1.2,3-2.7,3c-1.5,0-2.7-1.4-2.7-3v-10
				c0-0.1,0-0.2,0-0.4c0-0.1,0-0.2,0-0.4v-8.9h0v-15H3.7V22v1.2v7.6c0,1-0.8,1.9-1.9,1.9c-1,0-1.9-0.8-1.9-1.9v-7.6V22v-7.6
				c0-0.2,0-0.3,0.1-0.5C0.2,13,0.6,12.4,1.6,12.4z"/>
		</g>
	</g>
	<g>
		<g>
			<path fill="#FFFFFF" d="M44.3,11.4c-3.2,0-5.7-2.6-5.7-5.7c0-3.2,2.6-5.7,5.7-5.7C47.5,0,50,2.6,50,5.7
				C50,8.9,47.5,11.4,44.3,11.4z"/>
		</g>
		<g>
			<path fill="#FFFFFF" d="M35.3,12.4h18.3c1.4,0,1.2,1.1,1.2,2.6v7v1.2v7.6c0,1-0.8,1.9-1.9,1.9c-1,0-1.9-0.8-1.9-1.9v-7.6V22v-4.4
				h-0.9v15h0v8.9c0,0.1,0,0.3,0,0.4c0,0.1,0,0.3,0,0.4v10c0,1.7-1.2,3-2.7,3c-1.5,0-2.7-1.4-2.7-3v-10c0-0.1,0-0.2,0-0.4
				c0-0.1,0-0.2,0-0.4v-8.9h-0.8v8.9c0,0.1,0,0.3,0,0.4c0,0.1,0,0.3,0,0.4v10c0,1.7-1.2,3-2.7,3c-1.5,0-2.7-1.4-2.7-3v-10
				c0-0.1,0-0.2,0-0.4c0-0.1,0-0.2,0-0.4v-8.9h0v-15h-0.9V22v1.2v7.6c0,1-0.8,1.9-1.9,1.9c-1,0-1.9-0.8-1.9-1.9v-7.6V22v-7.6
				c0-0.2,0-0.3,0.1-0.5C33.9,13,34.3,12.4,35.3,12.4z"/>
		</g>
	</g>
	<g>
		<g>
			<path fill="#FFFFFF" d="M78,11.4c-3.2,0-5.7-2.6-5.7-5.7C72.3,2.6,74.9,0,78,0c3.2,0,5.7,2.6,5.7,5.7C83.7,8.9,81.2,11.4,78,11.4
				z"/>
		</g>
		<g>
			<path fill="#FFFFFF" d="M69,12.4h18.3c1.4,0,1.2,1.1,1.2,2.6v7v1.2v7.6c0,1-0.8,1.9-1.9,1.9s-1.9-0.8-1.9-1.9v-7.6V22v-4.4h-0.9
				v15h0v8.9c0,0.1,0,0.3,0,0.4c0,0.1,0,0.3,0,0.4v10c0,1.7-1.2,3-2.7,3c-1.5,0-2.7-1.4-2.7-3v-10c0-0.1,0-0.2,0-0.4
				c0-0.1,0-0.2,0-0.4v-8.9h-0.8v8.9c0,0.1,0,0.3,0,0.4c0,0.1,0,0.3,0,0.4v10c0,1.7-1.2,3-2.7,3c-1.5,0-2.7-1.4-2.7-3v-10
				c0-0.1,0-0.2,0-0.4c0-0.1,0-0.2,0-0.4v-8.9h0v-15h-0.9V22v1.2v7.6c0,1-0.8,1.9-1.9,1.9c-1,0-1.9-0.8-1.9-1.9v-7.6V22v-7.6
				c0-0.2,0-0.3,0.1-0.5C67.6,13,68,12.4,69,12.4z"/>
		</g>
	</g>
	<g>
		<g>
			<path fill="#FFFFFF" d="M111.7,11.4c-3.2,0-5.7-2.6-5.7-5.7c0-3.2,2.6-5.7,5.7-5.7c3.2,0,5.7,2.6,5.7,5.7
				C117.4,8.9,114.9,11.4,111.7,11.4z"/>
		</g>
		<g>
			<path fill="#FFFFFF" d="M102.7,12.4H121c1.4,0,1.2,1.1,1.2,2.6v7v1.2v7.6c0,1-0.8,1.9-1.9,1.9s-1.9-0.8-1.9-1.9v-7.6V22v-4.4
				h-0.9v15h0v8.9c0,0.1,0,0.3,0,0.4c0,0.1,0,0.3,0,0.4v10c0,1.7-1.2,3-2.7,3c-1.5,0-2.7-1.4-2.7-3v-10c0-0.1,0-0.2,0-0.4
				c0-0.1,0-0.2,0-0.4v-8.9h-0.8v8.9c0,0.1,0,0.3,0,0.4c0,0.1,0,0.3,0,0.4v10c0,1.7-1.2,3-2.7,3c-1.5,0-2.7-1.4-2.7-3v-10
				c0-0.1,0-0.2,0-0.4c0-0.1,0-0.2,0-0.4v-8.9h0v-15h-0.9V22v1.2v7.6c0,1-0.8,1.9-1.9,1.9c-1,0-1.9-0.8-1.9-1.9v-7.6V22v-7.6
				c0-0.2,0-0.3,0.1-0.5C101.3,13,101.7,12.4,102.7,12.4z"/>
		</g>
	</g>
	<g>
		<g>
			<path fill="#FFFFFF" d="M10.6,76.5c-3.2,0-5.7-2.6-5.7-5.7c0-3.2,2.6-5.7,5.7-5.7c3.2,0,5.7,2.6,5.7,5.7
				C16.3,73.9,13.8,76.5,10.6,76.5z"/>
		</g>
		<g>
			<path fill="#FFFFFF" d="M1.6,77.5h18.3c1.4,0,1.2,1.1,1.2,2.6v7v1.2v7.6c0,1-0.8,1.9-1.9,1.9c-1,0-1.9-0.8-1.9-1.9v-7.6V87v-4.4
				h-0.9v15h0v8.9c0,0.1,0,0.3,0,0.4c0,0.1,0,0.3,0,0.4v10c0,1.7-1.2,3-2.7,3c-1.5,0-2.7-1.4-2.7-3v-10c0-0.1,0-0.2,0-0.4
				c0-0.1,0-0.2,0-0.4v-8.9h-0.8v8.9c0,0.1,0,0.3,0,0.4c0,0.1,0,0.3,0,0.4v10c0,1.7-1.2,3-2.7,3c-1.5,0-2.7-1.4-2.7-3v-10
				c0-0.1,0-0.2,0-0.4c0-0.1,0-0.2,0-0.4v-8.9h0v-15H3.7V87v1.2v7.6c0,1-0.8,1.9-1.9,1.9c-1,0-1.9-0.8-1.9-1.9v-7.6V87v-7.6
				c0-0.2,0-0.3,0.1-0.5C0.2,78.1,0.6,77.5,1.6,77.5z"/>
		</g>
	</g>
	<g>
		<g>
			<path fill="#FFFFFF" d="M44.3,76.5c-3.2,0-5.7-2.6-5.7-5.7c0-3.2,2.6-5.7,5.7-5.7c3.2,0,5.7,2.6,5.7,5.7
				C50,73.9,47.5,76.5,44.3,76.5z"/>
		</g>
		<g>
			<path fill="#FFFFFF" d="M35.3,77.5h18.3c1.4,0,1.2,1.1,1.2,2.6v7v1.2v7.6c0,1-0.8,1.9-1.9,1.9c-1,0-1.9-0.8-1.9-1.9v-7.6V87v-4.4
				h-0.9v15h0v8.9c0,0.1,0,0.3,0,0.4c0,0.1,0,0.3,0,0.4v10c0,1.7-1.2,3-2.7,3c-1.5,0-2.7-1.4-2.7-3v-10c0-0.1,0-0.2,0-0.4
				c0-0.1,0-0.2,0-0.4v-8.9h-0.8v8.9c0,0.1,0,0.3,0,0.4c0,0.1,0,0.3,0,0.4v10c0,1.7-1.2,3-2.7,3c-1.5,0-2.7-1.4-2.7-3v-10
				c0-0.1,0-0.2,0-0.4c0-0.1,0-0.2,0-0.4v-8.9h0v-15h-0.9V87v1.2v7.6c0,1-0.8,1.9-1.9,1.9c-1,0-1.9-0.8-1.9-1.9v-7.6V87v-7.6
				c0-0.2,0-0.3,0.1-0.5C33.9,78.1,34.3,77.5,35.3,77.5z"/>
		</g>
	</g>
	<g>
		<g>
			<path fill="#FFFFFF" d="M78,76.5c-3.2,0-5.7-2.6-5.7-5.7c0-3.2,2.6-5.7,5.7-5.7c3.2,0,5.7,2.6,5.7,5.7
				C83.7,73.9,81.2,76.5,78,76.5z"/>
		</g>
		<g>
			<path fill="#FFFFFF" d="M69,77.5h18.3c1.4,0,1.2,1.1,1.2,2.6v7v1.2v7.6c0,1-0.8,1.9-1.9,1.9s-1.9-0.8-1.9-1.9v-7.6V87v-4.4h-0.9
				v15h0v8.9c0,0.1,0,0.3,0,0.4c0,0.1,0,0.3,0,0.4v10c0,1.7-1.2,3-2.7,3c-1.5,0-2.7-1.4-2.7-3v-10c0-0.1,0-0.2,0-0.4
				c0-0.1,0-0.2,0-0.4v-8.9h-0.8v8.9c0,0.1,0,0.3,0,0.4c0,0.1,0,0.3,0,0.4v10c0,1.7-1.2,3-2.7,3c-1.5,0-2.7-1.4-2.7-3v-10
				c0-0.1,0-0.2,0-0.4c0-0.1,0-0.2,0-0.4v-8.9h0v-15h-0.9V87v1.2v7.6c0,1-0.8,1.9-1.9,1.9c-1,0-1.9-0.8-1.9-1.9v-7.6V87v-7.6
				c0-0.2,0-0.3,0.1-0.5C67.6,78.1,68,77.5,69,77.5z"/>
		</g>
	</g>
	<g>
		<g>
			<path fill="#FFFFFF" d="M111.7,76.5c-3.2,0-5.7-2.6-5.7-5.7c0-3.2,2.6-5.7,5.7-5.7c3.2,0,5.7,2.6,5.7,5.7
				C117.4,73.9,114.9,76.5,111.7,76.5z"/>
		</g>
		<g>
			<path fill="#FFFFFF" d="M102.7,77.5H121c1.4,0,1.2,1.1,1.2,2.6v7v1.2v7.6c0,1-0.8,1.9-1.9,1.9s-1.9-0.8-1.9-1.9v-7.6V87v-4.4
				h-0.9v15h0v8.9c0,0.1,0,0.3,0,0.4c0,0.1,0,0.3,0,0.4v10c0,1.7-1.2,3-2.7,3c-1.5,0-2.7-1.4-2.7-3v-10c0-0.1,0-0.2,0-0.4
				c0-0.1,0-0.2,0-0.4v-8.9h-0.8v8.9c0,0.1,0,0.3,0,0.4c0,0.1,0,0.3,0,0.4v10c0,1.7-1.2,3-2.7,3c-1.5,0-2.7-1.4-2.7-3v-10
				c0-0.1,0-0.2,0-0.4c0-0.1,0-0.2,0-0.4v-8.9h0v-15h-0.9V87v1.2v7.6c0,1-0.8,1.9-1.9,1.9c-1,0-1.9-0.8-1.9-1.9v-7.6V87v-7.6
				c0-0.2,0-0.3,0.1-0.5C101.3,78.1,101.7,77.5,102.7,77.5z"/>
		</g>
	</g>
</g>
</svg>
